<?xml version="1.0" encoding="UTF-8" standalone="no"?>
<!-- Creator: CorelDRAW -->

<svg
   xmlns:dc="http://purl.org/dc/elements/1.1/"
   xmlns:cc="http://creativecommons.org/ns#"
   xmlns:rdf="http://www.w3.org/1999/02/22-rdf-syntax-ns#"
   xmlns:svg="http://www.w3.org/2000/svg"
   xmlns="http://www.w3.org/2000/svg"
   xmlns:sodipodi="http://sodipodi.sourceforge.net/DTD/sodipodi-0.dtd"
   xmlns:inkscape="http://www.inkscape.org/namespaces/inkscape"
   xml:space="preserve"
   width="50.4697"
   height="50.504177"
   style="fill-rule:evenodd"
   viewBox="0 0 14.243671 14.253401"
   id="svg3053"
   version="1.1"
   inkscape:version="0.48.1 r9760"
   sodipodi:docname="logo_ev4b1.svg"><metadata
   id="metadata3073"><rdf:RDF><cc:Work
       rdf:about=""><dc:format>image/svg+xml</dc:format><dc:type
         rdf:resource="http://purl.org/dc/dcmitype/StillImage" /><dc:title></dc:title></cc:Work></rdf:RDF></metadata><sodipodi:namedview
   pagecolor="#ffffff"
   bordercolor="#666666"
   borderopacity="1"
   objecttolerance="10"
   gridtolerance="10"
   guidetolerance="10"
   inkscape:pageopacity="0"
   inkscape:pageshadow="2"
   inkscape:window-width="1440"
   inkscape:window-height="825"
   id="namedview3071"
   showgrid="false"
   inkscape:zoom="2.3622106"
   inkscape:cx="34.466531"
   inkscape:cy="10.852996"
   inkscape:window-x="0"
   inkscape:window-y="25"
   inkscape:window-maximized="1"
   inkscape:current-layer="svg3053"
   units="mm"
   fit-margin-top="0"
   fit-margin-left="0"
   fit-margin-right="0"
   fit-margin-bottom="0"
   showguides="true"
   inkscape:guide-bbox="true" />
 <defs
   id="defs3055">
  <style
   type="text/css"
   id="style3057">
   
    .fil3 {fill:#00599E}
    .fil0 {fill:#D2D3D6}
    .fil2 {fill:#DA2724}
    .fil1 {fill:white}
   
  </style>
 </defs>
 <g
   id="Capa_x0020_1"
   transform="matrix(0.07272177,0,0,0.07272177,-3.7738527,-0.57185539)">
  <metadata
   id="CorelCorpID_0Corel-Layer" />
  <rect
   class="fil0"
   x="54.548698"
   y="10.6517"
   width="193.211"
   height="193.211"
   rx="23.098499"
   ry="23.098499"
   id="rect3061"
   style="fill:#d2d3d6" />
  <rect
   class="fil1"
   x="51.894402"
   y="7.8635998"
   width="193.211"
   height="193.211"
   rx="23.098499"
   ry="23.098499"
   id="rect3063"
   style="fill:#ffffff" />
  <polygon
   class="fil2"
   points="229.589,44.29 231.693,46.67 233.59,49.2022 235.271,51.8824 236.724,54.6985 237.952,57.6092 238.97,60.5858 239.78,63.6288 240.385,66.7321 240.785,69.89 240.983,73.0962 240.981,76.3456 240.78,79.6326 240.383,82.9524 239.792,86.2999 239.009,89.6704 238.035,93.0593 236.873,96.4624 235.524,99.875 233.991,103.293 232.274,106.712 230.375,110.127 228.297,113.534 226.039,116.93 223.604,120.31 220.993,123.669 218.207,127.003 215.248,130.308 212.116,133.58 208.814,136.813 205.341,140.004 201.701,143.148 197.892,146.241 193.918,149.278 189.779,152.256 185.476,155.168 181.009,158.013 175.884,161.07 170.786,163.889 165.724,166.473 160.703,168.826 155.73,170.949 150.809,172.848 145.947,174.525 141.149,175.984 136.422,177.229 131.769,178.262 127.199,179.087 122.715,179.707 118.324,180.127 114.031,180.348 109.843,180.374 105.764,180.208 101.801,179.853 97.9591,179.313 94.2447,178.589 90.6632,177.686 87.2212,176.605 83.9247,175.35 80.7801,173.923 77.7941,172.328 74.9739,170.566 72.3261,168.641 69.8585,166.556 67.5786,164.315 65.4944,161.921 63.6134,159.381 61.9432,156.697 60.4953,153.884 59.2645,150.984 58.2328,148.026 57.3976,145.006 56.7588,141.93 56.3161,138.802 56.0691,135.629 56.0172,132.414 56.1597,129.163 56.4959,125.879 57.0251,122.569 57.7462,119.234 58.6585,115.881 59.7612,112.513 61.0536,109.133 62.5351,105.746 64.2051,102.355 66.063,98.964 68.1084,95.5767 70.3408,92.1966 72.7597,88.8273 75.3651,85.4727 78.1564,82.1363 81.1334,78.8218 84.296,75.5328 87.6441,72.2731 91.1773,69.0463 94.8955,65.8562 98.7984,62.7063 102.886,59.6006 107.159,56.5427 111.615,53.5363 116.262,50.5818 121.302,47.6007 126.322,44.8486 131.317,42.3228 136.28,40.0199 141.205,37.9372 146.086,36.0715 150.916,34.4201 155.69,32.9796 160.4,31.7475 165.041,30.7206 169.607,29.896 174.092,29.2709 178.488,28.8425 182.791,28.608 186.993,28.5648 191.089,28.7099 195.073,29.0412 198.937,29.5559 202.677,30.2517 206.285,31.1261 209.755,32.1771 213.081,33.4023 216.254,34.7997 219.269,36.3671 222.118,38.1025 224.793,40.0031 227.286,42.0667 "
   id="polygon3065"
   style="fill:#da2724" />
  <polygon
   class="fil1"
   points="61.8469,141.594 62.4148,144.189 63.1651,146.71 64.0978,149.154 65.2108,151.516 66.5049,153.767 67.9815,155.893 69.6401,157.898 71.4769,159.781 73.4893,161.541 75.6731,163.176 78.0246,164.682 80.5394,166.057 83.2132,167.298 86.0409,168.402 89.0172,169.365 92.1362,170.185 95.3926,170.857 98.7803,171.379 102.293,171.748 105.925,171.962 109.671,172.017 113.523,171.911 117.476,171.641 121.524,171.205 125.66,170.601 129.879,169.826 134.174,168.878 138.539,167.754 142.968,166.453 147.455,164.971 151.994,163.308 156.58,161.46 161.205,159.426 165.864,157.203 170.551,154.789 175.261,152.182 179.889,149.439 184.335,146.621 188.6,143.735 192.682,140.786 196.581,137.78 200.296,134.723 203.828,131.62 207.175,128.477 210.337,125.301 213.315,122.096 216.106,118.869 218.712,115.626 221.13,112.372 223.363,109.113 225.408,105.856 227.266,102.606 228.936,99.3694 230.419,96.1517 231.714,92.9594 232.821,89.7981 233.741,86.6741 234.474,83.5929 235.02,80.5607 235.379,77.5828 235.552,74.6653 235.541,71.8127 235.345,69.0305 234.965,66.3233 234.402,63.6955 233.655,61.1507 232.726,58.6928 231.618,56.3339 230.322,54.1052 228.824,52.0163 227.125,50.0569 225.229,48.2264 223.141,46.5256 220.866,44.9557 218.411,43.5192 215.782,42.2183 212.988,41.0555 210.035,40.0331 206.933,39.1535 203.689,38.4184 200.313,37.83 196.814,37.3898 193.2,37.0994 189.48,36.9599 185.663,36.9728 181.758,37.1391 177.773,37.4597 173.719,37.9356 169.603,38.5678 165.434,39.357 161.222,40.3039 156.974,41.4093 152.7,42.6742 148.408,44.0988 144.107,45.684 139.805,47.4304 135.511,49.3387 131.234,51.4092 126.982,53.6429 122.757,56.0438 117.982,58.9265 113.401,61.8639 109.012,64.8513 104.817,67.8838 100.815,70.9568 97.0062,74.0654 93.3908,77.2048 89.9688,80.3702 86.7403,83.5569 83.7049,86.7597 80.8629,89.974 78.2141,93.1946 75.7586,96.417 73.496,99.6358 71.4263,102.846 69.5491,106.043 67.8644,109.222 66.3715,112.377 65.0702,115.505 63.9596,118.598 63.0394,121.654 62.3085,124.667 61.7663,127.632 61.4113,130.545 61.2431,133.401 61.2602,136.197 61.4619,138.93 "
   id="polygon3067"
   style="fill:#ffffff" />
  <path
   class="fil3"
   d="m 149.13,90.2439 21.553,46.5013 14.3891,0 25.2387,-54.7072 27.6237,0 0,-13.4896 -37.562,0 -22.4125,48.6606 -12.5801,-26.9651 -16.2499,0 z m -64.0268,-10.9415 58.6209,0 0,13.6771 -42.3591,0 9.5347,20.5956 -9.8473,20.4345 42.5154,0 0,13.606 -58.4646,0 0,-13.606 9.4364,-20.4867 -9.4364,-20.5434 0,-13.6771 z"
   id="path3069"
   inkscape:connector-curvature="0"
   style="fill:#00599e" />
 </g>
</svg>